…
## ListIdentifiers


```r
list_identifiers(from = '2018-05-01T', until = '2018-06-01T')
#> # A tibble: 255 x 5
#>    identifier        datestamp    setSpec            setSpec.1    setSpec.2
#>    <chr>             <chr>        <chr>              <chr>        <chr>
#>  1 cf7fbc99-de82-41… 2018-05-31T… installation:791e… dataset_typ… country:…
#>  2 cf7d6c01-309b-45… 2018-05-30T… installation:394c… dataset_typ… country:…
#>  3 cca13f2c-0d2c-4c… 2018-05-30T… installation:394c… dataset_typ… country:…
#>  4 09d5405e-ca86-45… 2018-05-30T… installation:804b… dataset_typ… country:…
#>  5 4b64d1f2-31c2-40… 2018-05-30T… installation:804b… dataset_typ… country:…
#>  6 884378d6-d591-47… 2018-05-29T… installation:a165… dataset_typ… country:…
#>  7 a0b06e2e-287a-46… 2018-05-31T… installation:4c5f… dataset_typ… country:…
#>  8 772de164-541d-4d… 2018-05-22T… installation:6884… dataset_typ… country:…
#>  9 f1a4ce9a-97cd-4d… 2018-05-21T… installation:394c… dataset_typ… country:…
#> 10 9d022797-7aa4-40… 2018-05-18T… installation:73eb… dataset_typ… country:…
#> # … with 245 more rows
```
## Count Identifiers


```r
count_identifiers()
#>                            url   count
#> 1 http://export.arxiv.org/oai2 1586724
```

## ListRecords


```r
list_records(from = '2018-05-01T', until = '2018-05-15T')
#> # A tibble: 44 x 26
#>    identifier datestamp setSpec setSpec.1 setSpec.2 title publisher
#>    <chr>      <chr>     <chr>   <chr>     <chr>     <chr> <chr>
#>  1 18799ce9-… 2018-05-… instal… dataset_… country:… Bird… Sokoine …
#>  2 79f51633-… 2018-05-… instal… dataset_… country:… Impl… Aïgos SAS
#>  3 f83746ee-… 2018-05-… instal… dataset_… country:… NDFF… Dutch Na…
#>  4 a3533a61-… 2018-05-… instal… dataset_… country:… EDP … EDP - En…
#>  5 ba9b66a3-… 2018-05-… instal… dataset_… country:… Ende… Sokoine …
#>  6 78b696d9-… 2018-05-… instal… dataset_… country:… Ende… Sokoine …
#>  7 c791b255-… 2018-05-… instal… dataset_… country:… Ende… Sokoine …
#>  8 b929ccda-… 2018-05-… instal… dataset_… country:… List… Sokoine …
#>  9 da285c2a-… 2018-05-… instal… dataset_… country:… Moni… Corporac…
#> 10 87372877-… 2018-05-… instal… dataset_… country:… Moni… Corporac…
#> # … with 34 more rows, and 19 more variables: identifier.1 <chr>,
#> #   subject <chr>, source <chr>, description <chr>, description.1 <chr>,
#> #   type <chr>, creator <chr>, date <chr>, language <chr>, coverage <chr>,
#> #   coverage.1 <chr>, format <chr>, source.1 <chr>, subject.1 <chr>,
#> #   coverage.2 <chr>, creator.1 <chr>, description.2 <chr>,
#> #   creator.2 <chr>, subject.2 <chr>
```
…
## List Sets


```r
list_sets("http://api.gbif.org/v1/oai-pmh/registry")
#> # A tibble: 572 x 2
#>    setSpec                     setName
#>    <chr>                       <chr>
#>  1 dataset_type                per dataset type
#>  2 dataset_type:OCCURRENCE     occurrence
#>  3 dataset_type:CHECKLIST      checklist
#>  4 dataset_type:METADATA       metadata
#>  5 dataset_type:SAMPLING_EVENT sampling_event
#>  6 country                     per country
#>  7 country:AD                  Andorra
#>  8 country:AO                  Angola
#>  9 country:AR                  Argentina
#> 10 country:AT                  Austria
#> # … with 562 more rows
```
…
